{
    "id": "11ca2c30-576d-40cf-ab65-24e6c114a160",
    "version": "0.1.0",
    "name": "Neural Network Classifier",
    "description": "A feed-forward neural network primitive using PyTorch.\nIt can be configured with input and output dimensions, number of layers (depth),\nand number of units in each layer except the last one (width).\n-------------\nInputs:  DataFrame of features/inputs of shape: NxM, where N = samples and M = features/numerical (Attribute) inputs.\n         or Denormalized DataFrame of dataset such as image dataset.\nOutputs: DataFrame containing the target column of shape Nx1 or denormalized dataset.\n-------------\n\nAttributes\n----------\nmetadata:\n    Primitive's metadata. Available as a class attribute.\nlogger:\n    Primitive's logger. Available as a class attribute.\nhyperparams:\n    Hyperparams passed to the constructor.\nrandom_seed:\n    Random seed passed to the constructor.\ndocker_containers:\n    A dict mapping Docker image keys from primitive's metadata to (named) tuples containing\n    container's address under which the container is accessible by the primitive, and a\n    dict mapping exposed ports to ports on that address.\nvolumes:\n    A dict mapping volume keys from primitive's metadata to file and directory paths\n    where downloaded and extracted files are available to the primitive.\ntemporary_directory:\n    An absolute path to a temporary directory a primitive can use to store any files\n    for the duration of the current pipeline run phase. Directory is automatically\n    cleaned up after the current pipeline run phase finishes.",
    "python_path": "d3m.primitives.classification.multilayer_perceptron.UBC",
    "primitive_family": "CLASSIFICATION",
    "algorithm_types": [
        "NEURAL_NETWORK_BACKPROPAGATION"
    ],
    "source": {
        "name": "UBC",
        "contact": "mailto:tonyjos@ubc.cs.ca",
        "uris": [
            "https://github.com/plai-group/ubc_primitives.git"
        ]
    },
    "keywords": [
        "neural network",
        "multi-layer Perceptron",
        "deep learning"
    ],
    "installation": [
        {
            "type": "PIP",
            "package_uri": "git+https://github.com/plai-group/ubc_primitives.git@1ddfe7754d2bf5f2ea94ceb2050efd9b689e7c23#egg=ubc_primitives"
        }
    ],
    "hyperparams_to_tune": [
        "learning_rate",
        "optimizer_type"
    ],
    "schema": "https://metadata.datadrivendiscovery.org/schemas/v0/primitive.json",
    "original_python_path": "primitives_ubc.clfyMLP.mlpClfy.MultilayerPerceptronClassifierPrimitive",
    "primitive_code": {
        "class_type_arguments": {
            "Inputs": "d3m.container.pandas.DataFrame",
            "Outputs": "d3m.container.pandas.DataFrame",
            "Params": "primitives_ubc.clfyMLP.mlpClfy.Params",
            "Hyperparams": "primitives_ubc.clfyMLP.mlpClfy.Hyperparams"
        },
        "interfaces_version": "2020.5.18",
        "interfaces": [
            "supervised_learning.SupervisedLearnerPrimitiveBase",
            "base.PrimitiveBase"
        ],
        "hyperparams": {
            "input_dim": {
                "type": "d3m.metadata.hyperparams.Hyperparameter",
                "default": 100,
                "structural_type": "int",
                "semantic_types": [
                    "https://metadata.datadrivendiscovery.org/types/ControlParameter"
                ],
                "description": "Dimensions of the input."
            },
            "output_dim": {
                "type": "d3m.metadata.hyperparams.Hyperparameter",
                "default": 2,
                "structural_type": "int",
                "semantic_types": [
                    "https://metadata.datadrivendiscovery.org/types/ControlParameter"
                ],
                "description": "Dimensions of CNN output."
            },
            "depth": {
                "type": "d3m.metadata.hyperparams.Hyperparameter",
                "default": 2,
                "structural_type": "int",
                "semantic_types": [
                    "https://metadata.datadrivendiscovery.org/types/ControlParameter"
                ],
                "description": "Total number of layers, including the output layer."
            },
            "width": {
                "type": "d3m.metadata.hyperparams.Hyperparameter",
                "default": 64,
                "structural_type": "int",
                "semantic_types": [
                    "https://metadata.datadrivendiscovery.org/types/ControlParameter"
                ],
                "description": "Number of units in each layer, except the last (output) layer, which is always equal to the output dimensions."
            },
            "use_batch_norm": {
                "type": "d3m.metadata.hyperparams.UniformBool",
                "default": false,
                "structural_type": "bool",
                "semantic_types": [
                    "https://metadata.datadrivendiscovery.org/types/ControlParameter"
                ],
                "description": "Whether to use batch norm after each layer except the last (output) layer."
            },
            "use_dropout": {
                "type": "d3m.metadata.hyperparams.UniformBool",
                "default": true,
                "structural_type": "bool",
                "semantic_types": [
                    "https://metadata.datadrivendiscovery.org/types/ControlParameter"
                ],
                "description": "Whether to use dropout after each layer."
            },
            "activation_type": {
                "type": "d3m.metadata.hyperparams.Enumeration",
                "default": "relu",
                "structural_type": "str",
                "semantic_types": [
                    "https://metadata.datadrivendiscovery.org/types/ControlParameter"
                ],
                "description": "Type of activation (non-linearity) following each layer excet the last one.",
                "values": [
                    "linear",
                    "relu",
                    "leaky_relu",
                    "tanh",
                    "sigmoid",
                    "softmax"
                ]
            },
            "last_activation_type": {
                "type": "d3m.metadata.hyperparams.Enumeration",
                "default": "softmax",
                "structural_type": "str",
                "semantic_types": [
                    "https://metadata.datadrivendiscovery.org/types/ControlParameter"
                ],
                "description": "Type of activation (non-linearity) following the last layer.",
                "values": [
                    "linear",
                    "tanh",
                    "sigmoid",
                    "softmax"
                ]
            },
            "loss_type": {
                "type": "d3m.metadata.hyperparams.Constant",
                "default": "crossentropy",
                "structural_type": "str",
                "semantic_types": [
                    "https://metadata.datadrivendiscovery.org/types/ControlParameter"
                ],
                "description": "Type of loss used for the local training (fit) of this primitive."
            },
            "optimizer_type": {
                "type": "d3m.metadata.hyperparams.Enumeration",
                "default": "adam",
                "structural_type": "str",
                "semantic_types": [
                    "https://metadata.datadrivendiscovery.org/types/ControlParameter"
                ],
                "description": "Type of optimizer used during training (fit).",
                "values": [
                    "adam",
                    "sgd"
                ]
            },
            "minibatch_size": {
                "type": "d3m.metadata.hyperparams.Hyperparameter",
                "default": 32,
                "structural_type": "int",
                "semantic_types": [
                    "https://metadata.datadrivendiscovery.org/types/ControlParameter"
                ],
                "description": "Minibatch size used during training (fit)."
            },
            "learning_rate": {
                "type": "d3m.metadata.hyperparams.Hyperparameter",
                "default": 0.0001,
                "structural_type": "float",
                "semantic_types": [
                    "https://metadata.datadrivendiscovery.org/types/TuningParameter"
                ],
                "description": "Learning rate used during training (fit)."
            },
            "momentum": {
                "type": "d3m.metadata.hyperparams.Hyperparameter",
                "default": 0.9,
                "structural_type": "float",
                "semantic_types": [
                    "https://metadata.datadrivendiscovery.org/types/ControlParameter"
                ],
                "description": "Momentum used during training (fit), only for optimizer_type sgd."
            },
            "weight_decay": {
                "type": "d3m.metadata.hyperparams.Hyperparameter",
                "default": 0.0001,
                "structural_type": "float",
                "semantic_types": [
                    "https://metadata.datadrivendiscovery.org/types/ControlParameter"
                ],
                "description": "Weight decay (L2 regularization) used during training (fit)."
            },
            "shuffle": {
                "type": "d3m.metadata.hyperparams.UniformBool",
                "default": true,
                "structural_type": "bool",
                "semantic_types": [
                    "https://metadata.datadrivendiscovery.org/types/ControlParameter"
                ],
                "description": "Shuffle minibatches in each epoch of training (fit)."
            },
            "fit_threshold": {
                "type": "d3m.metadata.hyperparams.Hyperparameter",
                "default": 1e-05,
                "structural_type": "float",
                "semantic_types": [
                    "https://metadata.datadrivendiscovery.org/types/ControlParameter"
                ],
                "description": "Threshold of loss value to early stop training (fit)."
            },
            "num_iterations": {
                "type": "d3m.metadata.hyperparams.Hyperparameter",
                "default": 100,
                "structural_type": "int",
                "semantic_types": [
                    "https://metadata.datadrivendiscovery.org/types/ControlParameter"
                ],
                "description": "Number of iterations to train the model."
            }
        },
        "arguments": {
            "hyperparams": {
                "type": "primitives_ubc.clfyMLP.mlpClfy.Hyperparams",
                "kind": "RUNTIME"
            },
            "random_seed": {
                "type": "int",
                "kind": "RUNTIME",
                "default": 0
            },
            "timeout": {
                "type": "typing.Union[NoneType, float]",
                "kind": "RUNTIME",
                "default": null
            },
            "iterations": {
                "type": "typing.Union[NoneType, int]",
                "kind": "RUNTIME",
                "default": null
            },
            "produce_methods": {
                "type": "typing.Sequence[str]",
                "kind": "RUNTIME"
            },
            "inputs": {
                "type": "d3m.container.pandas.DataFrame",
                "kind": "PIPELINE"
            },
            "outputs": {
                "type": "d3m.container.pandas.DataFrame",
                "kind": "PIPELINE"
            },
            "params": {
                "type": "primitives_ubc.clfyMLP.mlpClfy.Params",
                "kind": "RUNTIME"
            }
        },
        "class_methods": {},
        "instance_methods": {
            "__init__": {
                "kind": "OTHER",
                "arguments": [
                    "hyperparams",
                    "random_seed"
                ],
                "returns": "NoneType"
            },
            "fit": {
                "kind": "OTHER",
                "arguments": [
                    "timeout",
                    "iterations"
                ],
                "returns": "d3m.primitive_interfaces.base.CallResult[NoneType]",
                "description": "Fits primitive using inputs and outputs (if any) using currently set training data.\n\nThe returned value should be a ``CallResult`` object with ``value`` set to ``None``.\n\nIf ``fit`` has already been called in the past on different training data,\nthis method fits it **again from scratch** using currently set training data.\n\nOn the other hand, caller can call ``fit`` multiple times on the same training data\nto continue fitting.\n\nIf ``fit`` fully fits using provided training data, there is no point in making further\ncalls to this method with same training data, and in fact further calls can be noops,\nor a primitive can decide to fully refit from scratch.\n\nIn the case fitting can continue with same training data (even if it is maybe not reasonable,\nbecause the internal metric primitive is using looks like fitting will be degrading), if ``fit``\nis called again (without setting training data), the primitive has to continue fitting.\n\nCaller can provide ``timeout`` information to guide the length of the fitting process.\nIdeally, a primitive should adapt its fitting process to try to do the best fitting possible\ninside the time allocated. If this is not possible and the primitive reaches the timeout\nbefore fitting, it should raise a ``TimeoutError`` exception to signal that fitting was\nunsuccessful in the given time. The state of the primitive after the exception should be\nas the method call has never happened and primitive should continue to operate normally.\nThe purpose of ``timeout`` is to give opportunity to a primitive to cleanly manage\nits state instead of interrupting execution from outside. Maintaining stable internal state\nshould have precedence over respecting the ``timeout`` (caller can terminate the misbehaving\nprimitive from outside anyway). If a longer ``timeout`` would produce different fitting,\nthen ``CallResult``'s ``has_finished`` should be set to ``False``.\n\nSome primitives have internal fitting iterations (for example, epochs). For those, caller\ncan provide how many of primitive's internal iterations should a primitive do before returning.\nPrimitives should make iterations as small as reasonable. If ``iterations`` is ``None``,\nthen there is no limit on how many iterations the primitive should do and primitive should\nchoose the best amount of iterations on its own (potentially controlled through\nhyper-parameters). If ``iterations`` is a number, a primitive has to do those number of\niterations (even if not reasonable), if possible. ``timeout`` should still be respected\nand potentially less iterations can be done because of that. Primitives with internal\niterations should make ``CallResult`` contain correct values.\n\nFor primitives which do not have internal iterations, any value of ``iterations``\nmeans that they should fit fully, respecting only ``timeout``.\n\nParameters\n----------\ntimeout:\n    A maximum time this primitive should be fitting during this method call, in seconds.\niterations:\n    How many of internal iterations should the primitive do.\n\nReturns\n-------\nA ``CallResult`` with ``None`` value."
            },
            "fit_multi_produce": {
                "kind": "OTHER",
                "arguments": [
                    "produce_methods",
                    "inputs",
                    "outputs",
                    "timeout",
                    "iterations"
                ],
                "returns": "d3m.primitive_interfaces.base.MultiCallResult",
                "description": "A method calling ``fit`` and after that multiple produce methods at once.\n\nThis method allows primitive author to implement an optimized version of both fitting\nand producing a primitive on same data.\n\nIf any additional method arguments are added to primitive's ``set_training_data`` method\nor produce method(s), or removed from them, they have to be added to or removed from this\nmethod as well. This method should accept an union of all arguments accepted by primitive's\n``set_training_data`` method and produce method(s) and then use them accordingly when\ncomputing results.\n\nThe default implementation of this method just calls first ``set_training_data`` method,\n``fit`` method, and all produce methods listed in ``produce_methods`` in order and is\npotentially inefficient.\n\nParameters\n----------\nproduce_methods:\n    A list of names of produce methods to call.\ninputs:\n    The inputs given to ``set_training_data`` and all produce methods.\noutputs:\n    The outputs given to ``set_training_data``.\ntimeout:\n    A maximum time this primitive should take to both fit the primitive and produce outputs\n    for all produce methods listed in ``produce_methods`` argument, in seconds.\niterations:\n    How many of internal iterations should the primitive do for both fitting and producing\n    outputs of all produce methods.\n\nReturns\n-------\nA dict of values for each produce method wrapped inside ``MultiCallResult``."
            },
            "get_params": {
                "kind": "OTHER",
                "arguments": [],
                "returns": "primitives_ubc.clfyMLP.mlpClfy.Params",
                "description": "Returns parameters of this primitive.\n\nParameters are all parameters of the primitive which can potentially change during a life-time of\na primitive. Parameters which cannot are passed through constructor.\n\nParameters should include all data which is necessary to create a new instance of this primitive\nbehaving exactly the same as this instance, when the new instance is created by passing the same\nparameters to the class constructor and calling ``set_params``.\n\nNo other arguments to the method are allowed (except for private arguments).\n\nReturns\n-------\nAn instance of parameters."
            },
            "multi_produce": {
                "kind": "OTHER",
                "arguments": [
                    "produce_methods",
                    "inputs",
                    "timeout",
                    "iterations"
                ],
                "returns": "d3m.primitive_interfaces.base.MultiCallResult",
                "description": "A method calling multiple produce methods at once.\n\nWhen a primitive has multiple produce methods it is common that they might compute the\nsame internal results for same inputs but return different representations of those results.\nIf caller is interested in multiple of those representations, calling multiple produce\nmethods might lead to recomputing same internal results multiple times. To address this,\nthis method allows primitive author to implement an optimized version which computes\ninternal results only once for multiple calls of produce methods, but return those different\nrepresentations.\n\nIf any additional method arguments are added to primitive's produce method(s), they have\nto be added to this method as well. This method should accept an union of all arguments\naccepted by primitive's produce method(s) and then use them accordingly when computing\nresults.\n\nThe default implementation of this method just calls all produce methods listed in\n``produce_methods`` in order and is potentially inefficient.\n\nIf primitive should have been fitted before calling this method, but it has not been,\nprimitive should raise a ``PrimitiveNotFittedError`` exception.\n\nParameters\n----------\nproduce_methods:\n    A list of names of produce methods to call.\ninputs:\n    The inputs given to all produce methods.\ntimeout:\n    A maximum time this primitive should take to produce outputs for all produce methods\n    listed in ``produce_methods`` argument, in seconds.\niterations:\n    How many of internal iterations should the primitive do.\n\nReturns\n-------\nA dict of values for each produce method wrapped inside ``MultiCallResult``."
            },
            "produce": {
                "kind": "PRODUCE",
                "arguments": [
                    "inputs",
                    "iterations",
                    "timeout"
                ],
                "returns": "d3m.primitive_interfaces.base.CallResult[d3m.container.pandas.DataFrame]",
                "singleton": false,
                "inputs_across_samples": [],
                "description": "Inputs:  DataFrame of features\nReturns: Pandas DataFrame Containing predictions\n\nParameters\n----------\ninputs:\n    The inputs of shape [num_inputs, ...].\ntimeout:\n    A maximum time this primitive should take to produce outputs during this method call, in seconds.\niterations:\n    How many of internal iterations should the primitive do.\n\nReturns\n-------\nThe outputs of shape [num_inputs, ...] wrapped inside ``CallResult``."
            },
            "set_params": {
                "kind": "OTHER",
                "arguments": [
                    "params"
                ],
                "returns": "NoneType",
                "description": "Sets parameters of this primitive.\n\nParameters are all parameters of the primitive which can potentially change during a life-time of\na primitive. Parameters which cannot are passed through constructor.\n\nNo other arguments to the method are allowed (except for private arguments).\n\nParameters\n----------\nparams:\n    An instance of parameters."
            },
            "set_training_data": {
                "kind": "OTHER",
                "arguments": [
                    "inputs",
                    "outputs"
                ],
                "returns": "NoneType",
                "description": "Sets current training data of this primitive.\n\nThis marks training data as changed even if new training data is the same as\nprevious training data.\n\nStandard sublasses in this package do not adhere to the Liskov substitution principle when\ninheriting this method because they do not necessary accept all arguments found in the base\nclass. This means that one has to inspect which arguments are accepted at runtime, or in\nother words, one has to inspect which exactly subclass a primitive implements, if\nyou are accepting a wider range of primitives. This relaxation is allowed only for\nstandard subclasses found in this package. Primitives themselves should not break\nthe Liskov substitution principle but should inherit from a suitable base class.\n\nParameters\n----------\ninputs:\n    The inputs.\noutputs:\n    The outputs."
            }
        },
        "class_attributes": {
            "logger": "logging.Logger",
            "metadata": "d3m.metadata.base.PrimitiveMetadata"
        },
        "instance_attributes": {
            "hyperparams": "d3m.metadata.hyperparams.Hyperparams",
            "random_seed": "int",
            "docker_containers": "typing.Dict[str, d3m.primitive_interfaces.base.DockerContainer]",
            "volumes": "typing.Dict[str, str]",
            "temporary_directory": "typing.Union[NoneType, str]"
        },
        "params": {
            "nn_model": "typing.Union[NoneType, typing.Any]",
            "target_names_": "typing.Union[NoneType, typing.List[str]]",
            "add_class_index_": "typing.Union[NoneType, typing.Any]",
            "dataset_type_": "typing.Union[NoneType, typing.Any]"
        }
    },
    "structural_type": "primitives_ubc.clfyMLP.mlpClfy.MultilayerPerceptronClassifierPrimitive",
    "digest": "d3144aa15fa1a9c6b6e1d2874727278a5f34dfbbe40cb4e1d5640d5c1782631d"
}
