{
    "id": "168d3fbf-a3fe-456a-93a3-d2720ef8cb42",
    "schema": "https://metadata.datadrivendiscovery.org/schemas/v0/pipeline.json",
    "created": "2020-06-11T03:25:11.487683Z",
    "inputs": [
        {
            "name": "inputs"
        }
    ],
    "outputs": [
        {
            "data": "steps.7.produce",
            "name": "predictions"
        }
    ],
    "steps": [
        {
            "type": "PRIMITIVE",
            "primitive": {
                "id": "4b42ce1e-9b98-4a25-b68e-fad13311eb65",
                "version": "0.3.0",
                "python_path": "d3m.primitives.data_transformation.dataset_to_dataframe.Common",
                "name": "Extract a DataFrame from a Dataset",
                "digest": "8457eeb19b44f5b26a5fb721a51087d618962a35f0aff17f4ad25d341a2170f2"
            },
            "arguments": {
                "inputs": {
                    "type": "CONTAINER",
                    "data": "inputs.0"
                }
            },
            "outputs": [
                {
                    "id": "produce"
                }
            ]
        },
        {
            "type": "PRIMITIVE",
            "primitive": {
                "id": "e193afa1-b45e-4d29-918f-5bb1fa3b88a7",
                "version": "0.2.0",
                "python_path": "d3m.primitives.schema_discovery.profiler.Common",
                "name": "Determine missing semantic types for columns automatically",
                "digest": "7f43c42521df224f8bb9c3cd4e9a17e3037d59db6dce451b8e01a9917f51cda3"
            },
            "arguments": {
                "inputs": {
                    "type": "CONTAINER",
                    "data": "steps.0.produce"
                }
            },
            "outputs": [
                {
                    "id": "produce"
                }
            ]
        },
        {
            "type": "PRIMITIVE",
            "primitive": {
                "id": "d510cb7a-1782-4f51-b44c-58f0236e47c7",
                "version": "0.6.0",
                "python_path": "d3m.primitives.data_transformation.column_parser.Common",
                "name": "Parses strings into their types",
                "digest": "4c54efdba460e2093deb47b8b099f118b23a591a61ee2c501e916e78bcab17b1"
            },
            "arguments": {
                "inputs": {
                    "type": "CONTAINER",
                    "data": "steps.1.produce"
                }
            },
            "outputs": [
                {
                    "id": "produce"
                }
            ]
        },
        {
            "type": "PRIMITIVE",
            "primitive": {
                "id": "4503a4c6-42f7-45a1-a1d4-ed69699cf5e1",
                "version": "0.4.0",
                "python_path": "d3m.primitives.data_transformation.extract_columns_by_semantic_types.Common",
                "name": "Extracts columns by semantic type",
                "digest": "f036d0219339094750e3408253e07b670d1398c6c8f5d95de4fe69a3e9884017"
            },
            "arguments": {
                "inputs": {
                    "type": "CONTAINER",
                    "data": "steps.2.produce"
                }
            },
            "outputs": [
                {
                    "id": "produce"
                }
            ],
            "hyperparams": {
                "semantic_types": {
                    "type": "VALUE",
                    "data": [
                        "https://metadata.datadrivendiscovery.org/types/Attribute"
                    ]
                }
            }
        },
        {
            "type": "PRIMITIVE",
            "primitive": {
                "id": "4503a4c6-42f7-45a1-a1d4-ed69699cf5e1",
                "version": "0.4.0",
                "python_path": "d3m.primitives.data_transformation.extract_columns_by_semantic_types.Common",
                "name": "Extracts columns by semantic type",
                "digest": "f036d0219339094750e3408253e07b670d1398c6c8f5d95de4fe69a3e9884017"
            },
            "arguments": {
                "inputs": {
                    "type": "CONTAINER",
                    "data": "steps.2.produce"
                }
            },
            "outputs": [
                {
                    "id": "produce"
                }
            ],
            "hyperparams": {
                "semantic_types": {
                    "type": "VALUE",
                    "data": [
                        "https://metadata.datadrivendiscovery.org/types/TrueTarget"
                    ]
                }
            }
        },
        {
            "type": "PRIMITIVE",
            "primitive": {
                "id": "ebfeb6f0-e366-4082-b1a7-602fd50acc96",
                "version": "0.2.2",
                "python_path": "d3m.primitives.data_preprocessing.random_sampling_imputer.BYU",
                "name": "Random Sampling Imputer",
                "digest": "e92df5bb3461815157a3eaeb1a8455e3116ac6f5e8d5c13c4b95c0967cf410f3"
            },
            "arguments": {
                "inputs": {
                    "type": "CONTAINER",
                    "data": "steps.3.produce"
                }
            },
            "outputs": [
                {
                    "id": "produce"
                }
            ]
        },
        {
            "type": "PRIMITIVE",
            "primitive": {
                "id": "1dd82833-5692-39cb-84fb-2455683075f3",
                "version": "2020.5.26",
                "python_path": "d3m.primitives.classification.random_forest.SKlearn",
                "name": "sklearn.ensemble.forest.RandomForestClassifier",
                "digest": "e923df3e615b4f0519d46ebd44ff6d0e90fc2cc91bb57492c36b8ed019f46a30"
            },
            "arguments": {
                "inputs": {
                    "type": "CONTAINER",
                    "data": "steps.5.produce"
                },
                "outputs": {
                    "type": "CONTAINER",
                    "data": "steps.4.produce"
                }
            },
            "outputs": [
                {
                    "id": "produce"
                }
            ],
            "hyperparams": {
                "use_semantic_types": {
                    "type": "VALUE",
                    "data": true
                }
            }
        },
        {
            "type": "PRIMITIVE",
            "primitive": {
                "id": "8d38b340-f83f-4877-baaa-162f8e551736",
                "version": "0.3.0",
                "python_path": "d3m.primitives.data_transformation.construct_predictions.Common",
                "name": "Construct pipeline predictions output",
                "digest": "9d75def19d2f401d3352d2d4b924269ddfca67d7bf998dc6bdd246d990ada0f4"
            },
            "arguments": {
                "inputs": {
                    "type": "CONTAINER",
                    "data": "steps.6.produce"
                },
                "reference": {
                    "type": "CONTAINER",
                    "data": "steps.0.produce"
                }
            },
            "outputs": [
                {
                    "id": "produce"
                }
            ]
        }
    ],
    "digest": "96088b8ee91700e834ebab17b343495fb6e0f3fca0e78910f4d5b5e6cf04e214"
}