{
	"id": "63e89dca-b9da-4df2-94a1-c527f4f6babd",
	"schema": "https://metadata.datadrivendiscovery.org/schemas/v0/pipeline.json",
	"source": {
		"name": "Uchicago"
	},
	"created": "2018-02-28T09:42:27.443844Z",
	"context": "TESTING",
	"name": "SmashClustering pipeline",
	"description": "SmashClustering pipeline\n",
	"inputs": [
		{
			"name": "input dataset"
		}
	],
	"outputs": [
		{
			"name": "predictions",
			"data": "steps.0.produce"
		}
	],
	"steps": [
		{
			"type": "PRIMITIVE",
			"primitive": {
				"id": "74767ad3-ac44-4d20-9c1c-248f56a42428",
				"version": "0.4.10",
				"python_path": "d3m.primitives.datasmash.d3m_SmashClustering",
				"name": "datasmash.d3m_SmashClustering"
			},
			"arguments": {
				"inputs": {
					"type": "CONTAINER",
					"data": "inputs.0"
				}
			},
			"outputs": [
				{
					"id": "produce"
				}
			]
		}
	]
}
