{
    "id": "9af34c9b-2675-4261-a711-5006656d9c78",
    "schema": "https://metadata.datadrivendiscovery.org/schemas/v0/pipeline.json",
    "created": "2019-06-18T01:08:31.820588Z",
    "inputs": [
        {
            "name": "inputs"
        }
    ],
    "outputs": [
        {
            "data": "steps.1.produce",
            "name": "output"
        }
    ],
    "steps": [
        {
            "type": "PRIMITIVE",
            "primitive": {
                "id": "79012210-2463-4f94-9da6-11bdc5a7e6c4",
                "version": "0.1.0",
                "python_path": "d3m.primitives.data_transformation.load_single_graph.DistilSingleGraphLoader",
                "name": "Load single graph and dataframe into a parseable object",
                "digest": "ef36b3e960456d993ddbbb274788b892c130742d61088ae67ac06b53fc16b387"
            },
            "arguments": {
                "inputs": {
                    "type": "CONTAINER",
                    "data": "inputs.0"
                }
            },
            "outputs": [
                {
                    "id": "produce"
                },
                {
                    "id": "produce_target"
                }
            ]
        },
        {
            "type": "PRIMITIVE",
            "primitive": {
                "id": "0130828c-1ac0-47a9-a167-f05bae5a3146",
                "version": "0.1.0",
                "python_path": "d3m.primitives.data_transformation.vertex_nomination.DistilVertexNomination",
                "name": "VertexNomination",
                "digest": "e2cf9a87f31bd53455adf8b761f33c8ce11ea7bb64c4835be543b46d145c23ce"
            },
            "arguments": {
                "inputs": {
                    "type": "CONTAINER",
                    "data": "steps.0.produce"
                },
                "outputs": {
                    "type": "CONTAINER",
                    "data": "steps.0.produce_target"
                }
            },
            "outputs": [
                {
                    "id": "produce"
                }
            ],
            "hyperparams": {
                "metric": {
                    "type": "VALUE",
                    "data": "accuracy"
                }
            }
        }
    ],
    "digest": "0d3b3ede9223443ee9b79e7f495627b646ccfd335994dcd45a36d98b30deb0e9"
}
